name: Products
description: ''
endpoints:
  -
    custom: []
    httpMethods:
      - GET
    uri: api/v1/products
    metadata:
      custom: []
      groupName: Products
      groupDescription: ''
      subgroup: ''
      subgroupDescription: ''
      title: 'List products'
      description: 'Returns paginated products with filters and lowest price.'
      authenticated: false
      deprecated: false
    headers:
      Content-Type: application/json
      Accept: application/json
    urlParameters: []
    cleanUrlParameters: []
    queryParameters:
      search:
        custom: []
        name: search
        description: 'Search by product title.'
        required: false
        example: Windows
        type: string
        enumValues: []
        exampleWasSpecified: true
        nullable: false
        deprecated: false
      category_id:
        custom: []
        name: category_id
        description: 'Filter by category ID.'
        required: false
        example: 1
        type: integer
        enumValues: []
        exampleWasSpecified: true
        nullable: false
        deprecated: false
      platform_id:
        custom: []
        name: platform_id
        description: 'Filter by platform ID.'
        required: false
        example: 2
        type: integer
        enumValues: []
        exampleWasSpecified: true
        nullable: false
        deprecated: false
      type_id:
        custom: []
        name: type_id
        description: 'Filter by type ID.'
        required: false
        example: 3
        type: integer
        enumValues: []
        exampleWasSpecified: true
        nullable: false
        deprecated: false
      region_id:
        custom: []
        name: region_id
        description: 'Filter by region ID.'
        required: false
        example: 4
        type: integer
        enumValues: []
        exampleWasSpecified: true
        nullable: false
        deprecated: false
      language_id:
        custom: []
        name: language_id
        description: 'Filter by language ID.'
        required: false
        example: 5
        type: integer
        enumValues: []
        exampleWasSpecified: true
        nullable: false
        deprecated: false
      works_on_id:
        custom: []
        name: works_on_id
        description: 'Filter by OS.'
        required: false
        example: 1
        type: integer
        enumValues: []
        exampleWasSpecified: true
        nullable: false
        deprecated: false
      per_page:
        custom: []
        name: per_page
        description: 'Items per page.'
        required: false
        example: 12
        type: integer
        enumValues: []
        exampleWasSpecified: true
        nullable: false
        deprecated: false
      page:
        custom: []
        name: page
        description: 'Page number.'
        required: false
        example: 1
        type: integer
        enumValues: []
        exampleWasSpecified: true
        nullable: false
        deprecated: false
    cleanQueryParameters:
      search: Windows
      category_id: 1
      platform_id: 2
      type_id: 3
      region_id: 4
      language_id: 5
      works_on_id: 1
      per_page: 12
      page: 1
    bodyParameters: []
    cleanBodyParameters: []
    fileParameters: []
    responses:
      -
        custom: []
        status: 200
        content: |-
          {
            "status": "success",
            "message": "Products fetched successfully",
            "data": {
              "products": [],
              "currency": {
                "code": "USD",
                "symbol": "$"
              },
              "pagination": {
                "total": 120,
                "current_page": 1,
                "last_page": 10
              }
            }
          }
        headers: []
        description: ''
    responseFields: []
    auth: []
    controller: null
    method: null
    route: null
  -
    custom: []
    httpMethods:
      - GET
    uri: 'api/v1/products/{id}'
    metadata:
      custom: []
      groupName: Products
      groupDescription: ''
      subgroup: ''
      subgroupDescription: ''
      title: 'Get product details'
      description: 'Returns full product details including offers and multi-currency prices.'
      authenticated: false
      deprecated: false
    headers:
      Content-Type: application/json
      Accept: application/json
    urlParameters:
      id:
        custom: []
        name: id
        description: 'Product ID.'
        required: true
        example: 25
        type: integer
        enumValues: []
        exampleWasSpecified: true
        nullable: false
        deprecated: false
    cleanUrlParameters:
      id: 25
    queryParameters: []
    cleanQueryParameters: []
    bodyParameters: []
    cleanBodyParameters: []
    fileParameters: []
    responses:
      -
        custom: []
        status: 200
        content: |-
          {
            "status": "success",
            "message": "Product details fetched successfully"
          }
        headers: []
        description: ''
      -
        custom: []
        status: 404
        content: |-
          {
            "message": "Not found"
          }
        headers: []
        description: ''
    responseFields: []
    auth: []
    controller: null
    method: null
    route: null
