## Autogenerated by Scribe. DO NOT MODIFY.

name: Products
description: ''
endpoints:
  -
    custom: []
    httpMethods:
      - GET
    uri: api/v1/products/search
    metadata:
      custom: []
      groupName: Products
      groupDescription: ''
      subgroup: ''
      subgroupDescription: ''
      title: 'Live product search'
      description: |-
        Lightweight endpoint for live search and autocomplete.
        Returns minimal product data sorted by lowest available price.

        Features:
        - Full-text search on product title and SKU
        - Cached for performance
        - Limited result set for fast responses
      authenticated: false
      deprecated: false
    headers:
      Content-Type: application/json
      Accept: application/json
    urlParameters: []
    cleanUrlParameters: []
    queryParameters:
      q:
        custom: []
        name: q
        description: 'Search keyword (minimum 2 characters).'
        required: true
        example: Windows
        type: string
        enumValues: []
        exampleWasSpecified: true
        nullable: false
        deprecated: false
    cleanQueryParameters:
      q: Windows
    bodyParameters:
      q:
        custom: []
        name: q
        description: 'Must be at least 2 characters. Must not be greater than 100 characters.'
        required: true
        example: vmqeopfuudtdsufvyvddq
        type: string
        enumValues: []
        exampleWasSpecified: false
        nullable: false
        deprecated: false
    cleanBodyParameters:
      q: vmqeopfuudtdsufvyvddq
    fileParameters: []
    responses:
      -
        custom: []
        status: 200
        content: |-
          {
            "status": "success",
            "message": "Search results fetched successfully",
            "data": {
              "query": "windows",
              "count": 2,
              "results": [
                {
                  "id": 25,
                  "title": "Windows 11 Pro",
                  "slug": "windows-11-pro",
                  "image": "/storage/products/windows-11.jpg",
                  "price": 12.99
                }
              ]
            }
          }
        headers: []
        description: ''
      -
        custom: []
        status: 422
        content: |-
          {
            "message": "The q field is required."
          }
        headers: []
        description: ''
    responseFields: []
    auth: []
    controller: null
    method: null
    route: null
  -
    custom: []
    httpMethods:
      - GET
    uri: api/v1/products
    metadata:
      custom: []
      groupName: Products
      groupDescription: ''
      subgroup: ''
      subgroupDescription: ''
      title: 'List products'
      description: 'Returns paginated products with filters and lowest price.'
      authenticated: false
      deprecated: false
    headers:
      Content-Type: application/json
      Accept: application/json
    urlParameters: []
    cleanUrlParameters: []
    queryParameters:
      search:
        custom: []
        name: search
        description: 'Search by product title.'
        required: false
        example: Windows
        type: string
        enumValues: []
        exampleWasSpecified: true
        nullable: false
        deprecated: false
      category_id:
        custom: []
        name: category_id
        description: 'Filter by category ID.'
        required: false
        example: 1
        type: integer
        enumValues: []
        exampleWasSpecified: true
        nullable: false
        deprecated: false
      platform_id:
        custom: []
        name: platform_id
        description: 'Filter by platform ID.'
        required: false
        example: 2
        type: integer
        enumValues: []
        exampleWasSpecified: true
        nullable: false
        deprecated: false
      type_id:
        custom: []
        name: type_id
        description: 'Filter by type ID.'
        required: false
        example: 3
        type: integer
        enumValues: []
        exampleWasSpecified: true
        nullable: false
        deprecated: false
      region_id:
        custom: []
        name: region_id
        description: 'Filter by region ID.'
        required: false
        example: 4
        type: integer
        enumValues: []
        exampleWasSpecified: true
        nullable: false
        deprecated: false
      language_id:
        custom: []
        name: language_id
        description: 'Filter by language ID.'
        required: false
        example: 5
        type: integer
        enumValues: []
        exampleWasSpecified: true
        nullable: false
        deprecated: false
      works_on_id:
        custom: []
        name: works_on_id
        description: 'Filter by OS.'
        required: false
        example: 1
        type: integer
        enumValues: []
        exampleWasSpecified: true
        nullable: false
        deprecated: false
      per_page:
        custom: []
        name: per_page
        description: 'Items per page.'
        required: false
        example: 12
        type: integer
        enumValues: []
        exampleWasSpecified: true
        nullable: false
        deprecated: false
      page:
        custom: []
        name: page
        description: 'Page number.'
        required: false
        example: 1
        type: integer
        enumValues: []
        exampleWasSpecified: true
        nullable: false
        deprecated: false
    cleanQueryParameters:
      search: Windows
      category_id: 1
      platform_id: 2
      type_id: 3
      region_id: 4
      language_id: 5
      works_on_id: 1
      per_page: 12
      page: 1
    bodyParameters: []
    cleanBodyParameters: []
    fileParameters: []
    responses:
      -
        custom: []
        status: 200
        content: |-
          {
            "status": "success",
            "message": "Products fetched successfully",
            "data": {
              "products": [],
              "currency": {
                "code": "USD",
                "symbol": "$"
              },
              "pagination": {
                "total": 120,
                "current_page": 1,
                "last_page": 10
              }
            }
          }
        headers: []
        description: ''
    responseFields: []
    auth: []
    controller: null
    method: null
    route: null
  -
    custom: []
    httpMethods:
      - GET
    uri: 'api/v1/products/{id}'
    metadata:
      custom: []
      groupName: Products
      groupDescription: ''
      subgroup: ''
      subgroupDescription: ''
      title: 'Get product details'
      description: 'Returns full product details including offers and multi-currency prices.'
      authenticated: false
      deprecated: false
    headers:
      Content-Type: application/json
      Accept: application/json
    urlParameters:
      id:
        custom: []
        name: id
        description: 'Product ID.'
        required: true
        example: 25
        type: integer
        enumValues: []
        exampleWasSpecified: true
        nullable: false
        deprecated: false
    cleanUrlParameters:
      id: 25
    queryParameters: []
    cleanQueryParameters: []
    bodyParameters: []
    cleanBodyParameters: []
    fileParameters: []
    responses:
      -
        custom: []
        status: 200
        content: |-
          {
            "status": "success",
            "message": "Product details fetched successfully"
          }
        headers: []
        description: ''
      -
        custom: []
        status: 404
        content: |-
          {
            "message": "Not found"
          }
        headers: []
        description: ''
    responseFields: []
    auth: []
    controller: null
    method: null
    route: null
  -
    custom: []
    httpMethods:
      - GET
    uri: 'api/v1/products/{id}/related'
    metadata:
      custom: []
      groupName: Products
      groupDescription: ''
      subgroup: ''
      subgroupDescription: ''
      title: 'Get related products'
      description: |-
        Returns products related to the given product based on shared
        categories, platforms, or types.

        Used for "You may also like" or "Similar products" sections.
      authenticated: false
      deprecated: false
    headers:
      Content-Type: application/json
      Accept: application/json
    urlParameters:
      id:
        custom: []
        name: id
        description: 'Product ID.'
        required: true
        example: 25
        type: integer
        enumValues: []
        exampleWasSpecified: true
        nullable: false
        deprecated: false
    cleanUrlParameters:
      id: 25
    queryParameters:
      limit:
        custom: []
        name: limit
        description: 'Number of related products to return. Default: 6'
        required: false
        example: 6
        type: integer
        enumValues: []
        exampleWasSpecified: true
        nullable: false
        deprecated: false
    cleanQueryParameters:
      limit: 6
    bodyParameters: []
    cleanBodyParameters: []
    fileParameters: []
    responses:
      -
        custom: []
        status: 200
        content: |-
          {
            "status": "success",
            "message": "Related products fetched successfully",
            "data": [
              {
                "id": 30,
                "title": "Windows 10 Pro",
                "slug": "windows-10-pro",
                "cover_image": "/storage/products/windows-10.jpg",
                "lowest_price": 9.99
              }
            ]
          }
        headers: []
        description: ''
      -
        custom: []
        status: 404
        content: |-
          {
            "message": "Product not found"
          }
        headers: []
        description: ''
    responseFields: []
    auth: []
    controller: null
    method: null
    route: null
  -
    custom: []
    httpMethods:
      - GET
    uri: api/v1/products/trending
    metadata:
      custom: []
      groupName: Products
      groupDescription: ''
      subgroup: ''
      subgroupDescription: ''
      title: 'Get trending products'
      description: |-
        Returns trending or popular products based on featured flag,
        promotion, or sorting priority.

        Used for homepage sections like "Trending now".
      authenticated: false
      deprecated: false
    headers:
      Content-Type: application/json
      Accept: application/json
    urlParameters: []
    cleanUrlParameters: []
    queryParameters:
      limit:
        custom: []
        name: limit
        description: 'Number of products to return. Default: 10'
        required: false
        example: 10
        type: integer
        enumValues: []
        exampleWasSpecified: true
        nullable: false
        deprecated: false
    cleanQueryParameters:
      limit: 10
    bodyParameters: []
    cleanBodyParameters: []
    fileParameters: []
    responses:
      -
        custom: []
        status: 200
        content: |-
          {
            "status": "success",
            "message": "Trending products fetched successfully",
            "data": [
              {
                "id": 18,
                "title": "Office 2021 Professional Plus",
                "slug": "office-2021-pro-plus",
                "cover_image": "/storage/products/office-2021.jpg",
                "lowest_price": 14.50
              }
            ]
          }
        headers: []
        description: ''
    responseFields: []
    auth: []
    controller: null
    method: null
    route: null
